[2020-10-27T23:00:23.857499+07:00] error_handler_middleware.NOTICE: Error number [2] sprintf(): Too few arguments on line 34 in file /home/yesdok-gen/apps/pribadi/jojonomic-slim/src/Middleware/HttpExceptionMiddleware.php  
[2020-10-27T23:00:23.858588+07:00] error_handler_middleware.NOTICE: Error number [2] sprintf(): Too few arguments on line 34 in file /home/yesdok-gen/apps/pribadi/jojonomic-slim/src/Middleware/HttpExceptionMiddleware.php  
[2020-10-27T23:19:15.767749+07:00] error_handler_middleware.NOTICE: Error number [8] Undefined property: App\Domain\User\Service\UserCreator::$logger on line 50 in file /home/yesdok-gen/apps/pribadi/jojonomic-slim/src/Domain/User/Service/UserCreator.php  
[2020-10-27T23:19:15.769181+07:00] error_handler_middleware.NOTICE: Error number [8] Undefined property: App\Domain\User\Service\UserCreator::$logger on line 50 in file /home/yesdok-gen/apps/pribadi/jojonomic-slim/src/Domain/User/Service/UserCreator.php  
